C:\Users\julio.picazo\Documents\workspace-spring-tool-suite-4-4.4.1.RELEASE\JavaWebProject\src\main\java\com\softtek\academy\web\dao\MomentumDAO.java
C:\Users\julio.picazo\Documents\workspace-spring-tool-suite-4-4.4.1.RELEASE\JavaWebProject\src\main\java\com\softtek\academy\web\conexion\Conexion.java
C:\Users\julio.picazo\Documents\workspace-spring-tool-suite-4-4.4.1.RELEASE\JavaWebProject\src\main\java\com\softtek\academy\web\init\AppInitializer.java
C:\Users\julio.picazo\Documents\workspace-spring-tool-suite-4-4.4.1.RELEASE\JavaWebProject\src\main\java\com\softtek\academy\web\model\Momentum.java
C:\Users\julio.picazo\Documents\workspace-spring-tool-suite-4-4.4.1.RELEASE\JavaWebProject\src\main\java\com\softtek\academy\web\repository\MomentumRepository.java
C:\Users\julio.picazo\Documents\workspace-spring-tool-suite-4-4.4.1.RELEASE\JavaWebProject\src\main\java\com\softtek\academy\web\configuration\JDBCConfiguration.java
C:\Users\julio.picazo\Documents\workspace-spring-tool-suite-4-4.4.1.RELEASE\JavaWebProject\src\main\java\com\softtek\academy\web\dao\MomentumJDBCImpl.java
C:\Users\julio.picazo\Documents\workspace-spring-tool-suite-4-4.4.1.RELEASE\JavaWebProject\src\main\java\com\softtek\academy\web\controller\MomentumController.java
C:\Users\julio.picazo\Documents\workspace-spring-tool-suite-4-4.4.1.RELEASE\JavaWebProject\src\main\java\com\softtek\academy\web\service\MomentumService.java
C:\Users\julio.picazo\Documents\workspace-spring-tool-suite-4-4.4.1.RELEASE\JavaWebProject\src\main\java\com\softtek\academy\web\service\MomentumServiceImpl.java
